{
  "type": "service_account",
  "project_id": "grand-highway-276712",
  "private_key_id": "5d23e1605c1be6f6f808c96de8cc687e651edfa0",
  "private_key": "-----BEGIN PRIVATE KEY-----\nMIIEvQIBADANBgkqhkiG9w0BAQEFAASCBKcwggSjAgEAAoIBAQCqlZd77aiIrUnz\nRdgCahrYW+T5gF2oJQzFIlh8pEeo8CA50JkMUNGSfrLNSSyZv5yNuK92DirbA6X7\nBlcfbi0tmQCLzrEkD/Mix+9s8m98yM4iZoY8+I1Q4cfVSUPsOzkDosZ3vPOz2Cyr\nzMJf2AKHVOOTEWe6n7NmKy0/+SBxSTTybOXU+A1xpY+xJWAoh6vDZW7Kt3uqGJ+h\nhdq+bEJoRuT8Rews+t7pMelodI/yiHphdULVuIvuxgjqqTmc6vy/+RWnYzacHy7n\ne8X082I1lxbjE4mXC1qbpwuojbWxHOicJe3RLL32IYrHyswDsYv0K/8Irx+s1vkE\nM7w/kIafAgMBAAECggEAIETjHqTzHEPXuObt+Wr0ABjGJHKlhPDZTRN1tMJo8erW\n1ckBosRJGNLR5SaiAsWuCls1CfqdHcg/ZlCpO39emYEXitsDRISl5F75Cl2EPJFJ\n+VT2sOL97J6BbHYLHM2JOAhbTfxXB57tuGQoIvRcahhjYodI3ZNnXvzs9uycOAGn\nYunj/p+A5vwONO2t2s4TzXGRRhNTjb2m0SnYjJUs57KK3gynxh0T6rV35pNMm0pP\nER71i7vseW2EVbuYq44Q1bJTfW4DWz4tf72XJq2qNgsFs/Qq3OQL/MXQQ9rZtp7s\nvXhsY/HdSwPy0TzrhEAo1lAm4V348W2a1qYCiYtPrQKBgQDjecFs+YrkdAukRXs+\njTos0v7TQ5Ogv3OAHnji6iiFAj/umjj0pvHttfs2xnq2UndETs6gu5z0LaVevqKd\nuPOuYDpmuDXwNzTc6X8Hb4204TzCC+19DtAXmkp5KP0kYA4xOVNPn1lWiVAd9PnH\n6UcW/gTdptGiPaPEIM7qvstiZQKBgQC/+Y6jIELOzhE/g+jD4TO7zXG2Xnq+rV/N\nV3zPjdspXbzR15YNE28qgZ8b3FuZqYF2wiDaZfv+ua8GrQC/HXgzlh8coOfQqCNz\ntC9Lxw41dLSdkV3uCCqPF2tQqi66z+H+J0bq9hJb388llFjstDf89WOZE2FRtiPJ\nT3RyMecyswKBgFffwBX97GbGYXzrDmoimneYZrJsJ4pwiwjSPLbD6DVBojrlPt1b\n5JeEtm/5iowGHWa43t9+umole/22vREa0p/pMoZd4RBT80rntJfFw0M9w3/epbaq\n0z5a7ywQ5oF3zeO8Fm/qydNBJj78VMWiW0EJjg2mFNOM5kesuOI8JEt1AoGAGLzS\nuYiFs1pwdIvN6bfST8f4eDSSgpGav74fUiuIazsuAqhSKJsxfvu3AgMSNqnWCfSY\nASyVHUzWFfkjGH12qMcWeTzuwj94WgeE9LHQzeidAZTi0rJwsYGmDX3wiZgSGgr7\no3lUAkzDx6bnEpFiiZEhZW9O4hWjZOR9L93oWesCgYEAmE0eLunVqqKtrheQQEn2\nyVHIo5TPEDi/QhIWfE//Ff50rmkASwcjCIMW7+BR/MA30TFIHYY8x8sRJiZ9Zls7\n9BJexufJys8DP9fpo3xZKx3kO4jgjO0rbovoEoa9wFXT3fGFAlLPwMIXCerfvGGC\n9yiRxl4G5iZePHIIuDrnOR0=\n-----END PRIVATE KEY-----\n",
  "client_email": "pricetrack@grand-highway-276712.iam.gserviceaccount.com",
  "client_id": "104197561888575913867",
  "auth_uri": "https://accounts.google.com/o/oauth2/auth",
  "token_uri": "https://oauth2.googleapis.com/token",
  "auth_provider_x509_cert_url": "https://www.googleapis.com/oauth2/v1/certs",
  "client_x509_cert_url": "https://www.googleapis.com/robot/v1/metadata/x509/pricetrack%40grand-highway-276712.iam.gserviceaccount.com"
}
